{
    "app-id": "de.schmidhuberj.DieBahn",
    "runtime": "org.gnome.Platform",
    "runtime-version": "master",
    "sdk": "org.gnome.Sdk",
    "sdk-extensions": [
        "org.freedesktop.Sdk.Extension.rust-stable"
    ],
    "command": "diebahn",
    "finish-args": [
        "--share=ipc",
        "--socket=fallback-x11",
        "--socket=wayland",
        "--socket=pulseaudio",
        "--device=dri",
        "--share=network"
    ],
    "build-options": {
        "append-path": "/usr/lib/sdk/rust-stable/bin",
        "env": {
            "CARGO_HOME": "/run/build/diebahn/cargo",
            "RUST_BACKTRACE": "1"
        },
        "build-args": [ "--share=network" ]
    },
    "modules": [
        {
            "name": "blueprint-compiler",
            "buildsystem": "meson",
            "cleanup": [
                "*"
            ],
            "sources": [
              {
                "type": "git",
                "url": "https://gitlab.gnome.org/jwestman/blueprint-compiler",
                "branch" : "main"
              }
            ]
        },
        {
            "name": "diebahn",
            "buildsystem": "meson",
            "config-opts": [
                "-Dprofile=default"
            ],
            "sources" : [
                {
                    "type" : "dir",
                    "path" : "..",
                    "exclude": [
                        ".flatpak-builder"
                    ]
                }
            ]
        }
    ]
}
